Machine Learning-Driven Predictive Modeling for Opioid Use Disorder in Chronic Pain Patients on Long-Term Opioid Use
…
#Model fit 
lr_cls_fit_2 <- 
  lr_cls_spec_2 |>
  fit(cohort ~ ., data = mydata_training_drop)

#Prediction using the "TEST" dataset
mydata.lr.pred.values.test_2 <-  bind_cols(
  truth = mydata_test_drop$cohort,
  predict(lr_cls_fit_2, mydata_test_drop),
  predict(lr_cls_fit_2, mydata_test_drop, type = "prob"))

mydata.lr.pred.values.test_2

# A tibble: 267 × 4
   truth .pred_class .pred_0 .pred_1
   <fct> <fct>         <dbl>   <dbl>
 1 0     0             0.964  0.0360
 2 0     0             0.932  0.0682
 3 0     0             0.504  0.496 
 4 0     0             0.908  0.0916
 5 0     0             0.915  0.0847
 6 0     0             0.813  0.187 
 7 0     0             0.929  0.0706
 8 1     1             0.316  0.684 
 9 0     0             0.987  0.0126
10 0     0             0.788  0.212 
# ℹ 257 more rows
…
#Model fit to training dataset
lr_cls_fit <- 
  lr_cls_spec |>
  fit(cohort ~ ., data = mydata_training)

#Prediction using the "testing" dataset
mydata.lr.pred.values.test <-  bind_cols(
  truth = mydata_test$cohort,
  predict(lr_cls_fit, mydata_test),
  predict(lr_cls_fit, mydata_test, type = "prob")
)
mydata.lr.pred.values.test

# A tibble: 267 × 4
   truth .pred_class .pred_0 .pred_1
   <fct> <fct>         <dbl>   <dbl>
 1 0     0             0.964  0.0356
 2 0     0             0.909  0.0910
 3 0     1             0.410  0.590 
 4 0     0             0.895  0.105 
 5 0     0             0.925  0.0748
 6 0     0             0.835  0.165 
 7 0     0             0.924  0.0757
 8 1     1             0.177  0.823 
 9 0     0             0.983  0.0166
10 0     0             0.824  0.176 
# ℹ 257 more rows
…
#Prediction using the "TEST" dataset
rf_predicted <- bind_cols(
  truth = mydata_test$cohort,
  predict(rf_fit, mydata_test),
  predict(rf_fit, mydata_test, type = "prob")
)

rf_predicted

# A tibble: 267 × 4
   truth .pred_class .pred_0 .pred_1
   <fct> <fct>         <dbl>   <dbl>
 1 0     0             0.847  0.153 
 2 0     0             0.963  0.0367
 3 0     0             0.533  0.467 
 4 0     0             0.943  0.0567
 5 0     0             0.92   0.08  
 6 0     0             0.873  0.127 
 7 0     0             0.947  0.0533
 8 1     1             0.193  0.807 
 9 0     0             0.987  0.0133
10 0     0             0.84   0.16  
# ℹ 257 more rows
…
